{"Submission":{
  "execs":["Assess the overall willingness to cooperate with the executives of Planning & Development department in the previous quarter.",
  "Assess the overall effectiveness of managers in Planning & Development department in the previous quarter.",
  "Assess how satisfactory or not the cooperation was with the executives of Planning & Development department in the previous quarter.",
  "Assess the workload you believe that the executives of Planning & Development department had in the previous quarter."],
  "Organization":["To what extent problems with the Planning & Development department have been created in the previous quarter?",
  "To what extent the work related to you and your department were completed on time by the executives of Planning & Development department in the previous quarter?",
  "Were there malfunctions between your department and Planning & Development department in the previous quarter?"],
  "WorkQuality":["What is the quality of the work provided by the Planning & Development department in relation to your department in the previous quarter?"],
  "cooperation":["How productive was the cooperation with Planning & Development department in the previous quarter?",
  "Assess the effectiveness of your cooperation with the Planning & Development department in the previous quarter?"],
  "Contribution":["To what extent do you believe that the Planning & Development department contributed to the achievement of iED’s objectives in the previous quarter?",
  "To what extent do you believe that the objectives of the Planning & Development department have been achieved in the previous quarter?"]
  
  },
  "IT":{
    "execs":["Assess the overall willingness to cooperate with the executives of the IT department during the previous quarter.",
    "Assess the overall effectiveness of managers in the IT department during the previous quarter."],
    "Organization":["To what extent problems with the IT department have been created during the previous quarter?",
    "To what extent the work related to you and your department were completed on time by the executives of the IT department during the previous quarter?"],
    "WorkQuality":["What is the quality of the work provided by the IT department in relation to your department during the previous quarter?"],
    "cooperation":["How productive was the cooperation with the IT department during the previous quarter?",
    "Assess the effectiveness of your cooperation with the IT department during the previous quarter"],
    "Contribution":["To what extent do you believe that the IT department contributed to the achievement of iED’s objectives during the previous quarter?",
    "To what extent do you believe that the objectives of the IT department have been achieved during the previous quarter?"]
  },
  "Managment":{
    "execs":["Aξιολόγησε συνολικά την Προθυμία για συνεργασία/εξυπηρέτηση των στελεχών του τμήματος ΔΙΟΙΚΗΣΗΣ το προηγούμενο τρίμηνο",
    "Αξιολογήστε το φόρτο εργασίας που πιστεύετε ότι είχαν τα στελέχη του τμήματος ΔΙΟΙΚΗΣΗΣ το προηγούμενο τρίμηνο"],
    "Organization":["Σε ποιό βαθμό δημιουργήθηκαν Προβλήματα με το τμήμα ΔΙΟΙΚΗΣΗΣ το προηγούμενο τρίμηνο",
    "Σε ποιό βαθμό ολοκληρώθηκαν έγκαιρα οι εργασίας που σχετίζονται με εσάς και το τμήμα σας από στελέχη του τμήματος ΔΙΟΙΚΗΣΗΣ το προηγούμενο τρίμηνο",
    "Υπήρξαν δυσλειτουργίες μεταξύ του τμήματός σας και του τμήματος ΔΙΟΙΚΗΣΗΣ το προηγούμενο τρίμηνο"],
    "cooperation":["Πόσο παραγωγική ήταν η συνεργασία σας με το τμήμα ΔΙΟΙΚΗΣΗΣ το προηγούμενο τρίμηνο",
    "Αξιολογήστε την αποτελεσματικότητα της συνεργασίας σας με το τμήμα ΔΙΟΙΚΗΣΗΣ το προηγούμενο τρίμηνο"],
    "Contribution":["Πόσο πιστεύεται ότι το τμήμα ΔΙΟΙΚΗΣΗΣ συνέβαλε στην επίτευξη των στόχων του Ied το προηγούμενο τρίμηνο",
    "Σε ποιό βαθμό πιστεύετε ότι επιτεύχθηκαν οι στόχοι του τμήματος ΔΙΟΙΚΗΣΗΣ το προηγούμενο τρίμηνο"]
  },
  "Implementation":{
    "execs":["Assess the overall willingness to cooperate with the executives of Implementation department within the previous quarter.",
    "Assess the overall effectiveness of managers in Implementation department within the previous quarter.",
    "Assess how satisfactory or not the cooperation was with the executives of Implementation department within the previous quarter.",
    "Assess the workload you believe that the executives of Implementation department had within the previous quarter."],
    "Organization":["To what extent problems with the Implementation department have been created within the previous quarter?",
    "To what extent the work related to you and your department were completed on time by the executives of Implementation department within the previous quarter?",
    "Were there malfunctions between your department and Implementation department within the previous quarter?"],
    "WorkQuality":["What is the quality of the work provided by the Implementation department in relation to your department within the previous quarter?"],
    "cooperation":["Assess the effectiveness of your cooperation with the Implementation department within the previous quarter "],
    "Contribution":["To what extent do you believe that the Implementation  department contributed to the achievement of iED’s objectives during the previous quarter?",
    "To what extent do you believe that the objectives of the Implementation  department have been achieved during the previous quarter?"]
  },
  "Marketing":{
    "execs":["Assess the overall willingness to cooperate with the executives of Marketing  department within the previous quarter.",
    "Assess the overall effectiveness of managers in Marketing  department within the previous quarter.",
    "Assess the overall effectiveness of the executives in Marketing department in the previous quarter."],
    "Organization":["To what extent problems with the Marketing  department have been created within the previous quarter?",
    "To what extent the work related to you and your Marketing  were completed on time by the executives of Implementation department within the previous quarter?"],
    "WorkQuality":["What is the quality of the work provided by the Marketing  department in relation to your department within the previous quarter?"],
    "cooperation":["Assess the effectiveness of your cooperation with the Marketing  department within the previous quarter ",
    "How productive was the cooperation with Marketing department in the previous quarter?"],
    "Contribution":["To what extent do you believe that the Marketing department contributed to the achievement of iED’s objectives during the previous quarter?",
    "To what extent do you believe that the objectives of the Marketing department have been achieved during the previous quarter?"]
  },
  "Self":["Interpersonal relationships with colleagues",
    "Taking responsibility","Accept advice and instructions",
    "Knowledge of the function of their department",
    "Knowledge of iED",
    "Volunteering and Sensitivity",
    "Interesting, excited and willing to work",
    "Communication with colleagues",
    "Problem solving",
    "Work under pressure",
    "Courtesy / friendliness",
    "Flexibility and adaptability to change",
    "Creativity",
    "Organizational aspects",
    "Quality of work",
    "Cosistency",
    "Speed",
    "How much do you deserve to be the worker of the month?",
    "How much you are willing to work?",
    "How much are you trying to improve?",
    "How much do you keep working hours?",
    "Willingness for education and new knowledge",
    "Offer help, willingness and service to colleagues",
    "Personal effort"
    ]
}